%YAML 1.1
%TAG !u! tag:unity3d.com,2011:
--- !u!74 &7400000
AnimationClip:
  m_ObjectHideFlags: 0
  m_CorrespondingSourceObject: {fileID: 0}
  m_PrefabInstance: {fileID: 0}
  m_PrefabAsset: {fileID: 0}
  m_Name: New Animation
  serializedVersion: 6
  m_Legacy: 0
  m_Compressed: 0
  m_UseHighQualityCurve: 1
  m_RotationCurves: []
  m_CompressedRotationCurves: []
  m_EulerCurves: []
  m_PositionCurves: []
  m_ScaleCurves: []
  m_FloatCurves: []
  m_PPtrCurves:
  - curve:
    - time: 0
      value: {fileID: 21300000, guid: 02e292f71b49ed24d9e3cf20635dde1a, type: 3}
    - time: 0.083333336
      value: {fileID: 21300000, guid: fd25fa3b5a227674a9a7b1cc1eff4331, type: 3}
    - time: 0.16666667
      value: {fileID: 21300000, guid: 293b5373f14e5f34aa270280551aff36, type: 3}
    - time: 0.25
      value: {fileID: 21300000, guid: 8702f7ba017acbc4c9cf87f180b07d88, type: 3}
    - time: 0.33333334
      value: {fileID: 21300000, guid: 4143604f7da9def41b35e3cb6a634db1, type: 3}
    - time: 0.41666666
      value: {fileID: 21300000, guid: 9e9f1108006f780409afd1933a5a0123, type: 3}
    - time: 0.5
      value: {fileID: 21300000, guid: 02d907f99b98b114a9d32a4f2801c6bb, type: 3}
    - time: 0.5833333
      value: {fileID: 21300000, guid: 27a63c9e177c48f47a0f572a8938d50e, type: 3}
    - time: 0.6666667
      value: {fileID: 21300000, guid: 14fa3f1c97b148141a21a20493d62368, type: 3}
    - time: 0.75
      value: {fileID: 21300000, guid: 3990e960dd042fc4f8df245baa7eb7ba, type: 3}
    - time: 0.8333333
      value: {fileID: 21300000, guid: 22f92ea0336296340969492b6b6184b7, type: 3}
    - time: 0.9166667
      value: {fileID: 21300000, guid: 52eb9522ad453b449bdebad91b748c92, type: 3}
    - time: 1
      value: {fileID: 21300000, guid: eebb64a0ef1ffd3418d1a624324a58fa, type: 3}
    - time: 1.0833334
      value: {fileID: 21300000, guid: 55966106274886b4192898fd4506c3f7, type: 3}
    - time: 1.1666666
      value: {fileID: 21300000, guid: 6acbb3ff4fb6c4a4b93f5627bce3cb13, type: 3}
    - time: 1.25
      value: {fileID: 21300000, guid: 12c081d3794ad22419c8e19349b73e9c, type: 3}
    - time: 1.3333334
      value: {fileID: 21300000, guid: 42859841ca2938f418abdd0196f035a0, type: 3}
    - time: 1.4166666
      value: {fileID: 21300000, guid: d68db1c2dc2e709489e94b7c56fdc86d, type: 3}
    - time: 1.5
      value: {fileID: 21300000, guid: dea0e1d4dd305064c800f5bb92b7cc06, type: 3}
    - time: 1.5833334
      value: {fileID: 21300000, guid: d48d4e87178ac9f4fb40f995ab70358e, type: 3}
    - time: 1.6666666
      value: {fileID: 21300000, guid: 153bdcdcbd5b0a04e9c55fa2c8a840cb, type: 3}
    - time: 1.75
      value: {fileID: 21300000, guid: 3b71388da23e3a049906e95e233e2133, type: 3}
    - time: 1.8333334
      value: {fileID: 21300000, guid: 0cef61083f15e854f95fa5e36f2b06df, type: 3}
    - time: 1.9166666
      value: {fileID: 21300000, guid: a7b70d8aca970f1499bb959a56971eff, type: 3}
    - time: 2
      value: {fileID: 21300000, guid: 5bfba20972d48794e9858774e2a931a8, type: 3}
    - time: 2.0833333
      value: {fileID: 21300000, guid: 9c05a89991a33484f94d618ea5291d2a, type: 3}
    - time: 2.1666667
      value: {fileID: 21300000, guid: d42f82649d00acb4abf7ff50fc8a787b, type: 3}
    - time: 2.25
      value: {fileID: 21300000, guid: 9ceb45f3aa2bded498dbca5f004756e2, type: 3}
    - time: 2.3333333
      value: {fileID: 21300000, guid: 60f6f4399bc7b154ba57ff2083acfe7b, type: 3}
    - time: 2.4166667
      value: {fileID: 21300000, guid: 07d74ebc1cc1d2643a36d8b0d4870c8b, type: 3}
    - time: 2.5
      value: {fileID: 21300000, guid: 7793bf3d4e183a745b49010a87575cd8, type: 3}
    - time: 2.5833333
      value: {fileID: 21300000, guid: 79cab912ab95d2942be9dc73ae4d048e, type: 3}
    - time: 2.6666667
      value: {fileID: 21300000, guid: ed9d65658b519634f9068ceb25be3250, type: 3}
    - time: 2.75
      value: {fileID: 21300000, guid: d48502d591016424bbbdce02e70c51de, type: 3}
    - time: 2.8333333
      value: {fileID: 21300000, guid: f4e3e48c06871134c88b83a25e2d1f65, type: 3}
    - time: 2.9166667
      value: {fileID: 21300000, guid: 58980bd00d0121344b200480b448e2e2, type: 3}
    - time: 3
      value: {fileID: 21300000, guid: e5e7e6e713b82a74a892c96a5abff5d5, type: 3}
    - time: 3.0833333
      value: {fileID: 21300000, guid: 06bfe76469247634681380dd14c5aebb, type: 3}
    - time: 3.1666667
      value: {fileID: 21300000, guid: 9cb277ec33de488438f39a13075e195c, type: 3}
    - time: 3.25
      value: {fileID: 21300000, guid: 59454cd21155920429ba3b81c6c4eb59, type: 3}
    - time: 3.3333333
      value: {fileID: 21300000, guid: 22e574c4e8edff640b38295142c703d0, type: 3}
    - time: 3.4166667
      value: {fileID: 21300000, guid: d32d8fff6e7bd3742a53ecd8d88815c4, type: 3}
    - time: 3.5
      value: {fileID: 21300000, guid: da259d12899e44f4ca18177de7b8baf4, type: 3}
    - time: 3.5833333
      value: {fileID: 21300000, guid: e6a521d10d7f99947be3fe8112c32ca8, type: 3}
    - time: 3.6666667
      value: {fileID: 21300000, guid: 008d9718c2fe2554e9cf22090397f928, type: 3}
    - time: 3.75
      value: {fileID: 21300000, guid: 1393b2e89bac7ce48be7b3aa4644b2ab, type: 3}
    - time: 3.8333333
      value: {fileID: 21300000, guid: b9ed86d1d0c4f89459d5ae26a5f1b595, type: 3}
    - time: 3.9166667
      value: {fileID: 21300000, guid: bf73bd336f4283542988310253b1972c, type: 3}
    - time: 4
      value: {fileID: 21300000, guid: ae1117f382b59124b8b39260a9263cb4, type: 3}
    - time: 4.0833335
      value: {fileID: 21300000, guid: 34d5a32b6d4a02841afcb9867f36a9b9, type: 3}
    - time: 4.1666665
      value: {fileID: 21300000, guid: e742aee2a1780194483a5e191cde1e33, type: 3}
    - time: 4.25
      value: {fileID: 21300000, guid: 69b56153baed96f4fb01dc25fc8b5373, type: 3}
    - time: 4.3333335
      value: {fileID: 21300000, guid: 45a522c555f479749aff92a6ca6f1cad, type: 3}
    - time: 4.4166665
      value: {fileID: 21300000, guid: 7b384efba7d75d742b88f7c5260b0d30, type: 3}
    - time: 4.5
      value: {fileID: 21300000, guid: 870eb7c712844a54b9b0c8b84a47df7a, type: 3}
    - time: 4.5833335
      value: {fileID: 21300000, guid: 58ccc403279bca3428d7164141475e69, type: 3}
    - time: 4.6666665
      value: {fileID: 21300000, guid: b747425d3a00ff74ebf5f60609aadfdd, type: 3}
    - time: 4.75
      value: {fileID: 21300000, guid: 06bd4e7d27b48d04c8cba30405900ac4, type: 3}
    - time: 4.8333335
      value: {fileID: 21300000, guid: 9b472dbbfd0eaa14d9836b2869b7d32b, type: 3}
    - time: 4.9166665
      value: {fileID: 21300000, guid: 847ce2af42514654591d7f55cd373dc8, type: 3}
    - time: 5
      value: {fileID: 21300000, guid: 585032bab6d8dac4dadb6e2ce5644e7a, type: 3}
    - time: 5.0833335
      value: {fileID: 21300000, guid: 1d9e8cb652b5e2c49837bf77c3ea0f78, type: 3}
    - time: 5.1666665
      value: {fileID: 21300000, guid: ec8c4248a64c07b43b6d81317e0a7b98, type: 3}
    - time: 5.25
      value: {fileID: 21300000, guid: 7c64a80a6fe6184469200fc2c7004110, type: 3}
    - time: 5.3333335
      value: {fileID: 21300000, guid: 896867881d8a8a344a179fe32f805301, type: 3}
    - time: 5.4166665
      value: {fileID: 21300000, guid: 362d00ae5b4143f4f917c21d1515606c, type: 3}
    - time: 5.5
      value: {fileID: 21300000, guid: d37c5326723382140a9672f1c2762c8e, type: 3}
    - time: 5.5833335
      value: {fileID: 21300000, guid: 0b0289d7cd012464a8688bdb87f208c5, type: 3}
    - time: 5.6666665
      value: {fileID: 21300000, guid: 78b3c25d253be5249ae4596fc414b195, type: 3}
    - time: 5.75
      value: {fileID: 21300000, guid: 85bd510ecf8f5784ca3bdff934f7d5ba, type: 3}
    - time: 5.8333335
      value: {fileID: 21300000, guid: f89e5d3196d8cb845bbf90f96cc0a05a, type: 3}
    - time: 5.9166665
      value: {fileID: 21300000, guid: 636fee5407531524c88544d0867e544b, type: 3}
    - time: 6
      value: {fileID: 21300000, guid: 13c8cff1a9edacf4faab012e28663fac, type: 3}
    - time: 6.0833335
      value: {fileID: 21300000, guid: 82cb347d1a4ab6f4792474e398645a1a, type: 3}
    - time: 6.1666665
      value: {fileID: 21300000, guid: aab7c474e8b97ad4a87af9e0100343e8, type: 3}
    - time: 6.25
      value: {fileID: 21300000, guid: 3e668f7852aa38e4d80143f53bc4cecf, type: 3}
    - time: 6.3333335
      value: {fileID: 21300000, guid: bf620178194f5d441a00253c248da978, type: 3}
    - time: 6.4166665
      value: {fileID: 21300000, guid: 2f2b33d75f32ad747aadf8308da1004f, type: 3}
    - time: 6.5
      value: {fileID: 21300000, guid: a37484483348a78458209889b408404a, type: 3}
    - time: 6.5833335
      value: {fileID: 21300000, guid: a890bc5018bc2814da5203cecd6c801a, type: 3}
    - time: 6.6666665
      value: {fileID: 21300000, guid: fe0e10d1cec60794195ee6a9eaeae84c, type: 3}
    - time: 6.75
      value: {fileID: 21300000, guid: 5fa45be4e6997dc44b274c3d08e8272d, type: 3}
    - time: 6.8333335
      value: {fileID: 21300000, guid: 316df526f9eadb24cbb6101ce078e65c, type: 3}
    - time: 6.9166665
      value: {fileID: 21300000, guid: 65dc01c714ca0fc4fa1b3c6b31ff359d, type: 3}
    - time: 7
      value: {fileID: 21300000, guid: 33e428b358a83a0428088472eae18d8c, type: 3}
    - time: 7.0833335
      value: {fileID: 21300000, guid: 3fdb1355bc26b4143bcb5ec30a66fae5, type: 3}
    - time: 7.1666665
      value: {fileID: 21300000, guid: 714db43c3ca9cf54183f0c54de622004, type: 3}
    - time: 7.25
      value: {fileID: 21300000, guid: 7fc0482f4e968244bb1888e3cc41903a, type: 3}
    - time: 7.3333335
      value: {fileID: 21300000, guid: 09972b524cbb0a640b1f262a2f1c4417, type: 3}
    - time: 7.4166665
      value: {fileID: 21300000, guid: 6710a2d2d8c31994ca1ce193db4b5b07, type: 3}
    - time: 7.5
      value: {fileID: 21300000, guid: ab73de5e8f56deb4295b214c12723830, type: 3}
    - time: 7.5833335
      value: {fileID: 21300000, guid: dc944be283b3bd347aa2e0d98b14f12c, type: 3}
    - time: 7.6666665
      value: {fileID: 21300000, guid: 61a84561a9dd5bb41bdea15337dd022d, type: 3}
    - time: 7.75
      value: {fileID: 21300000, guid: 5f87d2ebcd22be540a2a23ab4ba0fdd0, type: 3}
    - time: 7.8333335
      value: {fileID: 21300000, guid: 30a1c746c276c70469e38fc6536503e6, type: 3}
    - time: 7.9166665
      value: {fileID: 21300000, guid: 23a9220968eb14e42b9e1910fd9c2e55, type: 3}
    - time: 8
      value: {fileID: 21300000, guid: 0ee9e7bf97401e24991da73d35108fc7, type: 3}
    - time: 8.083333
      value: {fileID: 21300000, guid: a63b8f0b0cd25a744b124b066119b825, type: 3}
    - time: 8.166667
      value: {fileID: 21300000, guid: c704529bc61f01a499bedc78a0552125, type: 3}
    - time: 8.25
      value: {fileID: 21300000, guid: ed0a8cfcc75de3a498705376a28815a8, type: 3}
    - time: 8.333333
      value: {fileID: 21300000, guid: e8261df85f1b4f14593d4649514bfc30, type: 3}
    - time: 8.416667
      value: {fileID: 21300000, guid: b0ce78803fd00ae42a683d6a2d937c5d, type: 3}
    - time: 8.5
      value: {fileID: 21300000, guid: 1efdf382438af38409a4e0d169882634, type: 3}
    - time: 8.583333
      value: {fileID: 21300000, guid: ac2723b478d69c74ca9403c03e8d9029, type: 3}
    - time: 8.666667
      value: {fileID: 21300000, guid: 9d1a97e44237863498a17caffccf3b80, type: 3}
    - time: 8.75
      value: {fileID: 21300000, guid: 5dc735f50760ba248936c5364da92150, type: 3}
    - time: 8.833333
      value: {fileID: 21300000, guid: 4032b47378db5914e919b5bbb5507fac, type: 3}
    - time: 8.916667
      value: {fileID: 21300000, guid: 8cbcc22065f45404a9230bb2b9fad550, type: 3}
    - time: 9
      value: {fileID: 21300000, guid: 7f9ed6d7a99598d4ba8072483bd821f3, type: 3}
    - time: 9.083333
      value: {fileID: 21300000, guid: 8cb5fd930f2e2e148bd3b6dee23e95da, type: 3}
    - time: 9.166667
      value: {fileID: 21300000, guid: bdc710c6db90312489451992c3e1ff73, type: 3}
    - time: 9.25
      value: {fileID: 21300000, guid: 808ca19deb9a51e409f5cc0b0b0890f5, type: 3}
    - time: 9.333333
      value: {fileID: 21300000, guid: 7fb85d8206849c9499339868bcad7d72, type: 3}
    - time: 9.416667
      value: {fileID: 21300000, guid: f57e18579da2f6543ab6e64d525a3bef, type: 3}
    - time: 9.5
      value: {fileID: 21300000, guid: 880a65d131fa5344f9cf876cf0a9491d, type: 3}
    - time: 9.583333
      value: {fileID: 21300000, guid: f1eb63e21bd4d954490117488ae6ab2a, type: 3}
    - time: 9.666667
      value: {fileID: 21300000, guid: 0e1af127ef178734cba684244699622f, type: 3}
    - time: 9.75
      value: {fileID: 21300000, guid: 49e4214f0c3a1204fb6af920235627c7, type: 3}
    - time: 9.833333
      value: {fileID: 21300000, guid: 2ebd7fe9e271ece4bae1bc2a229508eb, type: 3}
    - time: 9.916667
      value: {fileID: 21300000, guid: 91882233cb68b3d4f9628c7ee8c82e37, type: 3}
    - time: 10
      value: {fileID: 21300000, guid: da611228c8d20ef46a43cc3c83f67527, type: 3}
    - time: 10.083333
      value: {fileID: 21300000, guid: 6da12e49581b6244cafb3088c9d83834, type: 3}
    - time: 10.166667
      value: {fileID: 21300000, guid: 712bb26384c77fa418cdc53f1aad5da3, type: 3}
    - time: 10.25
      value: {fileID: 21300000, guid: 83c7ce33c360abf42a9863344184cdc3, type: 3}
    - time: 10.333333
      value: {fileID: 21300000, guid: 7c20410cb351c674a968b3e841067c44, type: 3}
    - time: 10.416667
      value: {fileID: 21300000, guid: 26a39c66d3c331a41b223cd13cf83732, type: 3}
    - time: 10.5
      value: {fileID: 21300000, guid: 11373c2b82c6e054ca02475dd5ffddce, type: 3}
    - time: 10.583333
      value: {fileID: 21300000, guid: 0e251d715fe284d4f841743e4069e309, type: 3}
    - time: 10.666667
      value: {fileID: 21300000, guid: 06aa46504bd2be44e9cba36dae16f410, type: 3}
    - time: 10.75
      value: {fileID: 21300000, guid: 9c3d733c5b477c744b8b5167686bc7ff, type: 3}
    - time: 10.833333
      value: {fileID: 21300000, guid: 086ee707b5e6aa34c8d96355b741ec3a, type: 3}
    - time: 10.916667
      value: {fileID: 21300000, guid: 6bf183a14ab4a084db8b229a6c53f3d3, type: 3}
    - time: 11
      value: {fileID: 21300000, guid: dacf6422e52b0914ab2b156af2efa062, type: 3}
    - time: 11.083333
      value: {fileID: 21300000, guid: 1767c9ee69846584aab9e9245946fd77, type: 3}
    - time: 11.166667
      value: {fileID: 21300000, guid: 8fb54d5c05d13f0498feecd3db96b69a, type: 3}
    - time: 11.25
      value: {fileID: 21300000, guid: fe020e9159c2dbe42b39c5ff3ce6fe86, type: 3}
    - time: 11.333333
      value: {fileID: 21300000, guid: 31c98501adc312f449cffd97075d03e6, type: 3}
    - time: 11.416667
      value: {fileID: 21300000, guid: 0b73f2deb1bfbe84695ee63777abfa10, type: 3}
    - time: 11.5
      value: {fileID: 21300000, guid: 7b8ab12a1a8ac534ebb1f75c33324b4b, type: 3}
    - time: 11.583333
      value: {fileID: 21300000, guid: 9289c590693d9714990c263072d96c20, type: 3}
    - time: 11.666667
      value: {fileID: 21300000, guid: 62fb634b39fe93849ac9bd7f9a059bff, type: 3}
    - time: 11.75
      value: {fileID: 21300000, guid: a798f2fb95178564b9351347e09c7570, type: 3}
    - time: 11.833333
      value: {fileID: 21300000, guid: ce59e6b794bd41e43bbe1457ed6da7a9, type: 3}
    - time: 11.916667
      value: {fileID: 21300000, guid: 17e35c4d975067841b119bb424cdbdbd, type: 3}
    - time: 12
      value: {fileID: 21300000, guid: a1fa9b0ce40c2444aad74b7923728929, type: 3}
    - time: 12.083333
      value: {fileID: 21300000, guid: 07f08b9ed79b74a4fb2a667c37229c79, type: 3}
    - time: 12.166667
      value: {fileID: 21300000, guid: c14d2dd7daec15340a73eafddea483c7, type: 3}
    - time: 12.25
      value: {fileID: 21300000, guid: 61524b62c9e32524db0cbfb2b2dba1d8, type: 3}
    - time: 12.333333
      value: {fileID: 21300000, guid: b82b9ae139aa82442b19c81e2a23c56a, type: 3}
    - time: 12.416667
      value: {fileID: 21300000, guid: d58b58e7811af1d4bbe570a6832a55dd, type: 3}
    - time: 12.5
      value: {fileID: 21300000, guid: 9b68559c135fc6a42ae4d45057bf4e54, type: 3}
    - time: 12.583333
      value: {fileID: 21300000, guid: e2480d1799afec149ae89bdb019bf419, type: 3}
    - time: 12.666667
      value: {fileID: 21300000, guid: b7fea568f26c27b48a94058b7d24c957, type: 3}
    - time: 12.75
      value: {fileID: 21300000, guid: 528956d354465e243863f17cbd36c794, type: 3}
    - time: 12.833333
      value: {fileID: 21300000, guid: a5da2097ef34fcf418b8685b231837a3, type: 3}
    - time: 12.916667
      value: {fileID: 21300000, guid: 349a21b69bdf0904e8a4addd4000c87e, type: 3}
    - time: 13
      value: {fileID: 21300000, guid: 51874cd9d44e33f4ea51a580e6d596f9, type: 3}
    - time: 13.083333
      value: {fileID: 21300000, guid: 5da89e48e98d0314f9435fb70d722e08, type: 3}
    - time: 13.166667
      value: {fileID: 21300000, guid: 85afccf6f34bcab4a86c7a84877fdf18, type: 3}
    - time: 13.25
      value: {fileID: 21300000, guid: e542e32d8422acd418d05abf390f8b76, type: 3}
    - time: 13.333333
      value: {fileID: 21300000, guid: 48a9978e093ac6848b741b7be921429b, type: 3}
    - time: 13.416667
      value: {fileID: 21300000, guid: b5029334abafd8543ad5a02b235813ff, type: 3}
    - time: 13.5
      value: {fileID: 21300000, guid: 4a7c1e3ad7e093046b7500962de7b134, type: 3}
    - time: 13.583333
      value: {fileID: 21300000, guid: d9b40d34400ecf34bb8f03cde829a6e2, type: 3}
    - time: 13.666667
      value: {fileID: 21300000, guid: 52a783189d5fc8741b936852f26e9836, type: 3}
    - time: 13.75
      value: {fileID: 21300000, guid: 2fd58240c3ad5284594b6d6ed4823008, type: 3}
    - time: 13.833333
      value: {fileID: 21300000, guid: 9514d9e46640ff740be5f4c31cffe77b, type: 3}
    - time: 13.916667
      value: {fileID: 21300000, guid: 4e05981da1075914d84c0255dd26c8d9, type: 3}
    - time: 14
      value: {fileID: 21300000, guid: d97864045c4a44c469800219b7256f6f, type: 3}
    - time: 14.083333
      value: {fileID: 21300000, guid: 7fb58c8d07defd548abe6f59411b15fb, type: 3}
    - time: 14.166667
      value: {fileID: 21300000, guid: 403b12fe86263114db2cd42eb5e2a880, type: 3}
    - time: 14.25
      value: {fileID: 21300000, guid: b5b7501964755b840800b9818b66a9ff, type: 3}
    - time: 14.333333
      value: {fileID: 21300000, guid: df64a1c5abd782c489b4fc6486e61de3, type: 3}
    - time: 14.416667
      value: {fileID: 21300000, guid: ac9037214e9ce3341b9cdc1856539853, type: 3}
    - time: 14.5
      value: {fileID: 21300000, guid: ed1b54d8d4f31cb46937ec83c5b023f3, type: 3}
    - time: 14.583333
      value: {fileID: 21300000, guid: 1f60ec423ee2ae8499529a8de4243544, type: 3}
    - time: 14.666667
      value: {fileID: 21300000, guid: db8d52298761c5146b942b96369c8249, type: 3}
    - time: 14.75
      value: {fileID: 21300000, guid: bb09493f3c4c13c47b7f9830e03caf4e, type: 3}
    - time: 14.833333
      value: {fileID: 21300000, guid: c436b872edbe4094d8270768295bc7e1, type: 3}
    - time: 14.916667
      value: {fileID: 21300000, guid: 113c964446bd8d24183c92a8ca57c2d7, type: 3}
    attribute: m_Sprite
    path: 
    classID: 212
    script: {fileID: 0}
  m_SampleRate: 12
  m_WrapMode: 0
  m_Bounds:
    m_Center: {x: 0, y: 0, z: 0}
    m_Extent: {x: 0, y: 0, z: 0}
  m_ClipBindingConstant:
    genericBindings:
    - serializedVersion: 2
      path: 0
      attribute: 0
      script: {fileID: 0}
      typeID: 212
      customType: 23
      isPPtrCurve: 1
    pptrCurveMapping:
    - {fileID: 21300000, guid: 02e292f71b49ed24d9e3cf20635dde1a, type: 3}
    - {fileID: 21300000, guid: fd25fa3b5a227674a9a7b1cc1eff4331, type: 3}
    - {fileID: 21300000, guid: 293b5373f14e5f34aa270280551aff36, type: 3}
    - {fileID: 21300000, guid: 8702f7ba017acbc4c9cf87f180b07d88, type: 3}
    - {fileID: 21300000, guid: 4143604f7da9def41b35e3cb6a634db1, type: 3}
    - {fileID: 21300000, guid: 9e9f1108006f780409afd1933a5a0123, type: 3}
    - {fileID: 21300000, guid: 02d907f99b98b114a9d32a4f2801c6bb, type: 3}
    - {fileID: 21300000, guid: 27a63c9e177c48f47a0f572a8938d50e, type: 3}
    - {fileID: 21300000, guid: 14fa3f1c97b148141a21a20493d62368, type: 3}
    - {fileID: 21300000, guid: 3990e960dd042fc4f8df245baa7eb7ba, type: 3}
    - {fileID: 21300000, guid: 22f92ea0336296340969492b6b6184b7, type: 3}
    - {fileID: 21300000, guid: 52eb9522ad453b449bdebad91b748c92, type: 3}
    - {fileID: 21300000, guid: eebb64a0ef1ffd3418d1a624324a58fa, type: 3}
    - {fileID: 21300000, guid: 55966106274886b4192898fd4506c3f7, type: 3}
    - {fileID: 21300000, guid: 6acbb3ff4fb6c4a4b93f5627bce3cb13, type: 3}
    - {fileID: 21300000, guid: 12c081d3794ad22419c8e19349b73e9c, type: 3}
    - {fileID: 21300000, guid: 42859841ca2938f418abdd0196f035a0, type: 3}
    - {fileID: 21300000, guid: d68db1c2dc2e709489e94b7c56fdc86d, type: 3}
    - {fileID: 21300000, guid: dea0e1d4dd305064c800f5bb92b7cc06, type: 3}
    - {fileID: 21300000, guid: d48d4e87178ac9f4fb40f995ab70358e, type: 3}
    - {fileID: 21300000, guid: 153bdcdcbd5b0a04e9c55fa2c8a840cb, type: 3}
    - {fileID: 21300000, guid: 3b71388da23e3a049906e95e233e2133, type: 3}
    - {fileID: 21300000, guid: 0cef61083f15e854f95fa5e36f2b06df, type: 3}
    - {fileID: 21300000, guid: a7b70d8aca970f1499bb959a56971eff, type: 3}
    - {fileID: 21300000, guid: 5bfba20972d48794e9858774e2a931a8, type: 3}
    - {fileID: 21300000, guid: 9c05a89991a33484f94d618ea5291d2a, type: 3}
    - {fileID: 21300000, guid: d42f82649d00acb4abf7ff50fc8a787b, type: 3}
    - {fileID: 21300000, guid: 9ceb45f3aa2bded498dbca5f004756e2, type: 3}
    - {fileID: 21300000, guid: 60f6f4399bc7b154ba57ff2083acfe7b, type: 3}
    - {fileID: 21300000, guid: 07d74ebc1cc1d2643a36d8b0d4870c8b, type: 3}
    - {fileID: 21300000, guid: 7793bf3d4e183a745b49010a87575cd8, type: 3}
    - {fileID: 21300000, guid: 79cab912ab95d2942be9dc73ae4d048e, type: 3}
    - {fileID: 21300000, guid: ed9d65658b519634f9068ceb25be3250, type: 3}
    - {fileID: 21300000, guid: d48502d591016424bbbdce02e70c51de, type: 3}
    - {fileID: 21300000, guid: f4e3e48c06871134c88b83a25e2d1f65, type: 3}
    - {fileID: 21300000, guid: 58980bd00d0121344b200480b448e2e2, type: 3}
    - {fileID: 21300000, guid: e5e7e6e713b82a74a892c96a5abff5d5, type: 3}
    - {fileID: 21300000, guid: 06bfe76469247634681380dd14c5aebb, type: 3}
    - {fileID: 21300000, guid: 9cb277ec33de488438f39a13075e195c, type: 3}
    - {fileID: 21300000, guid: 59454cd21155920429ba3b81c6c4eb59, type: 3}
    - {fileID: 21300000, guid: 22e574c4e8edff640b38295142c703d0, type: 3}
    - {fileID: 21300000, guid: d32d8fff6e7bd3742a53ecd8d88815c4, type: 3}
    - {fileID: 21300000, guid: da259d12899e44f4ca18177de7b8baf4, type: 3}
    - {fileID: 21300000, guid: e6a521d10d7f99947be3fe8112c32ca8, type: 3}
    - {fileID: 21300000, guid: 008d9718c2fe2554e9cf22090397f928, type: 3}
    - {fileID: 21300000, guid: 1393b2e89bac7ce48be7b3aa4644b2ab, type: 3}
    - {fileID: 21300000, guid: b9ed86d1d0c4f89459d5ae26a5f1b595, type: 3}
    - {fileID: 21300000, guid: bf73bd336f4283542988310253b1972c, type: 3}
    - {fileID: 21300000, guid: ae1117f382b59124b8b39260a9263cb4, type: 3}
    - {fileID: 21300000, guid: 34d5a32b6d4a02841afcb9867f36a9b9, type: 3}
    - {fileID: 21300000, guid: e742aee2a1780194483a5e191cde1e33, type: 3}
    - {fileID: 21300000, guid: 69b56153baed96f4fb01dc25fc8b5373, type: 3}
    - {fileID: 21300000, guid: 45a522c555f479749aff92a6ca6f1cad, type: 3}
    - {fileID: 21300000, guid: 7b384efba7d75d742b88f7c5260b0d30, type: 3}
    - {fileID: 21300000, guid: 870eb7c712844a54b9b0c8b84a47df7a, type: 3}
    - {fileID: 21300000, guid: 58ccc403279bca3428d7164141475e69, type: 3}
    - {fileID: 21300000, guid: b747425d3a00ff74ebf5f60609aadfdd, type: 3}
    - {fileID: 21300000, guid: 06bd4e7d27b48d04c8cba30405900ac4, type: 3}
    - {fileID: 21300000, guid: 9b472dbbfd0eaa14d9836b2869b7d32b, type: 3}
    - {fileID: 21300000, guid: 847ce2af42514654591d7f55cd373dc8, type: 3}
    - {fileID: 21300000, guid: 585032bab6d8dac4dadb6e2ce5644e7a, type: 3}
    - {fileID: 21300000, guid: 1d9e8cb652b5e2c49837bf77c3ea0f78, type: 3}
    - {fileID: 21300000, guid: ec8c4248a64c07b43b6d81317e0a7b98, type: 3}
    - {fileID: 21300000, guid: 7c64a80a6fe6184469200fc2c7004110, type: 3}
    - {fileID: 21300000, guid: 896867881d8a8a344a179fe32f805301, type: 3}
    - {fileID: 21300000, guid: 362d00ae5b4143f4f917c21d1515606c, type: 3}
    - {fileID: 21300000, guid: d37c5326723382140a9672f1c2762c8e, type: 3}
    - {fileID: 21300000, guid: 0b0289d7cd012464a8688bdb87f208c5, type: 3}
    - {fileID: 21300000, guid: 78b3c25d253be5249ae4596fc414b195, type: 3}
    - {fileID: 21300000, guid: 85bd510ecf8f5784ca3bdff934f7d5ba, type: 3}
    - {fileID: 21300000, guid: f89e5d3196d8cb845bbf90f96cc0a05a, type: 3}
    - {fileID: 21300000, guid: 636fee5407531524c88544d0867e544b, type: 3}
    - {fileID: 21300000, guid: 13c8cff1a9edacf4faab012e28663fac, type: 3}
    - {fileID: 21300000, guid: 82cb347d1a4ab6f4792474e398645a1a, type: 3}
    - {fileID: 21300000, guid: aab7c474e8b97ad4a87af9e0100343e8, type: 3}
    - {fileID: 21300000, guid: 3e668f7852aa38e4d80143f53bc4cecf, type: 3}
    - {fileID: 21300000, guid: bf620178194f5d441a00253c248da978, type: 3}
    - {fileID: 21300000, guid: 2f2b33d75f32ad747aadf8308da1004f, type: 3}
    - {fileID: 21300000, guid: a37484483348a78458209889b408404a, type: 3}
    - {fileID: 21300000, guid: a890bc5018bc2814da5203cecd6c801a, type: 3}
    - {fileID: 21300000, guid: fe0e10d1cec60794195ee6a9eaeae84c, type: 3}
    - {fileID: 21300000, guid: 5fa45be4e6997dc44b274c3d08e8272d, type: 3}
    - {fileID: 21300000, guid: 316df526f9eadb24cbb6101ce078e65c, type: 3}
    - {fileID: 21300000, guid: 65dc01c714ca0fc4fa1b3c6b31ff359d, type: 3}
    - {fileID: 21300000, guid: 33e428b358a83a0428088472eae18d8c, type: 3}
    - {fileID: 21300000, guid: 3fdb1355bc26b4143bcb5ec30a66fae5, type: 3}
    - {fileID: 21300000, guid: 714db43c3ca9cf54183f0c54de622004, type: 3}
    - {fileID: 21300000, guid: 7fc0482f4e968244bb1888e3cc41903a, type: 3}
    - {fileID: 21300000, guid: 09972b524cbb0a640b1f262a2f1c4417, type: 3}
    - {fileID: 21300000, guid: 6710a2d2d8c31994ca1ce193db4b5b07, type: 3}
    - {fileID: 21300000, guid: ab73de5e8f56deb4295b214c12723830, type: 3}
    - {fileID: 21300000, guid: dc944be283b3bd347aa2e0d98b14f12c, type: 3}
    - {fileID: 21300000, guid: 61a84561a9dd5bb41bdea15337dd022d, type: 3}
    - {fileID: 21300000, guid: 5f87d2ebcd22be540a2a23ab4ba0fdd0, type: 3}
    - {fileID: 21300000, guid: 30a1c746c276c70469e38fc6536503e6, type: 3}
    - {fileID: 21300000, guid: 23a9220968eb14e42b9e1910fd9c2e55, type: 3}
    - {fileID: 21300000, guid: 0ee9e7bf97401e24991da73d35108fc7, type: 3}
    - {fileID: 21300000, guid: a63b8f0b0cd25a744b124b066119b825, type: 3}
    - {fileID: 21300000, guid: c704529bc61f01a499bedc78a0552125, type: 3}
    - {fileID: 21300000, guid: ed0a8cfcc75de3a498705376a28815a8, type: 3}
    - {fileID: 21300000, guid: e8261df85f1b4f14593d4649514bfc30, type: 3}
    - {fileID: 21300000, guid: b0ce78803fd00ae42a683d6a2d937c5d, type: 3}
    - {fileID: 21300000, guid: 1efdf382438af38409a4e0d169882634, type: 3}
    - {fileID: 21300000, guid: ac2723b478d69c74ca9403c03e8d9029, type: 3}
    - {fileID: 21300000, guid: 9d1a97e44237863498a17caffccf3b80, type: 3}
    - {fileID: 21300000, guid: 5dc735f50760ba248936c5364da92150, type: 3}
    - {fileID: 21300000, guid: 4032b47378db5914e919b5bbb5507fac, type: 3}
    - {fileID: 21300000, guid: 8cbcc22065f45404a9230bb2b9fad550, type: 3}
    - {fileID: 21300000, guid: 7f9ed6d7a99598d4ba8072483bd821f3, type: 3}
    - {fileID: 21300000, guid: 8cb5fd930f2e2e148bd3b6dee23e95da, type: 3}
    - {fileID: 21300000, guid: bdc710c6db90312489451992c3e1ff73, type: 3}
    - {fileID: 21300000, guid: 808ca19deb9a51e409f5cc0b0b0890f5, type: 3}
    - {fileID: 21300000, guid: 7fb85d8206849c9499339868bcad7d72, type: 3}
    - {fileID: 21300000, guid: f57e18579da2f6543ab6e64d525a3bef, type: 3}
    - {fileID: 21300000, guid: 880a65d131fa5344f9cf876cf0a9491d, type: 3}
    - {fileID: 21300000, guid: f1eb63e21bd4d954490117488ae6ab2a, type: 3}
    - {fileID: 21300000, guid: 0e1af127ef178734cba684244699622f, type: 3}
    - {fileID: 21300000, guid: 49e4214f0c3a1204fb6af920235627c7, type: 3}
    - {fileID: 21300000, guid: 2ebd7fe9e271ece4bae1bc2a229508eb, type: 3}
    - {fileID: 21300000, guid: 91882233cb68b3d4f9628c7ee8c82e37, type: 3}
    - {fileID: 21300000, guid: da611228c8d20ef46a43cc3c83f67527, type: 3}
    - {fileID: 21300000, guid: 6da12e49581b6244cafb3088c9d83834, type: 3}
    - {fileID: 21300000, guid: 712bb26384c77fa418cdc53f1aad5da3, type: 3}
    - {fileID: 21300000, guid: 83c7ce33c360abf42a9863344184cdc3, type: 3}
    - {fileID: 21300000, guid: 7c20410cb351c674a968b3e841067c44, type: 3}
    - {fileID: 21300000, guid: 26a39c66d3c331a41b223cd13cf83732, type: 3}
    - {fileID: 21300000, guid: 11373c2b82c6e054ca02475dd5ffddce, type: 3}
    - {fileID: 21300000, guid: 0e251d715fe284d4f841743e4069e309, type: 3}
    - {fileID: 21300000, guid: 06aa46504bd2be44e9cba36dae16f410, type: 3}
    - {fileID: 21300000, guid: 9c3d733c5b477c744b8b5167686bc7ff, type: 3}
    - {fileID: 21300000, guid: 086ee707b5e6aa34c8d96355b741ec3a, type: 3}
    - {fileID: 21300000, guid: 6bf183a14ab4a084db8b229a6c53f3d3, type: 3}
    - {fileID: 21300000, guid: dacf6422e52b0914ab2b156af2efa062, type: 3}
    - {fileID: 21300000, guid: 1767c9ee69846584aab9e9245946fd77, type: 3}
    - {fileID: 21300000, guid: 8fb54d5c05d13f0498feecd3db96b69a, type: 3}
    - {fileID: 21300000, guid: fe020e9159c2dbe42b39c5ff3ce6fe86, type: 3}
    - {fileID: 21300000, guid: 31c98501adc312f449cffd97075d03e6, type: 3}
    - {fileID: 21300000, guid: 0b73f2deb1bfbe84695ee63777abfa10, type: 3}
    - {fileID: 21300000, guid: 7b8ab12a1a8ac534ebb1f75c33324b4b, type: 3}
    - {fileID: 21300000, guid: 9289c590693d9714990c263072d96c20, type: 3}
    - {fileID: 21300000, guid: 62fb634b39fe93849ac9bd7f9a059bff, type: 3}
    - {fileID: 21300000, guid: a798f2fb95178564b9351347e09c7570, type: 3}
    - {fileID: 21300000, guid: ce59e6b794bd41e43bbe1457ed6da7a9, type: 3}
    - {fileID: 21300000, guid: 17e35c4d975067841b119bb424cdbdbd, type: 3}
    - {fileID: 21300000, guid: a1fa9b0ce40c2444aad74b7923728929, type: 3}
    - {fileID: 21300000, guid: 07f08b9ed79b74a4fb2a667c37229c79, type: 3}
    - {fileID: 21300000, guid: c14d2dd7daec15340a73eafddea483c7, type: 3}
    - {fileID: 21300000, guid: 61524b62c9e32524db0cbfb2b2dba1d8, type: 3}
    - {fileID: 21300000, guid: b82b9ae139aa82442b19c81e2a23c56a, type: 3}
    - {fileID: 21300000, guid: d58b58e7811af1d4bbe570a6832a55dd, type: 3}
    - {fileID: 21300000, guid: 9b68559c135fc6a42ae4d45057bf4e54, type: 3}
    - {fileID: 21300000, guid: e2480d1799afec149ae89bdb019bf419, type: 3}
    - {fileID: 21300000, guid: b7fea568f26c27b48a94058b7d24c957, type: 3}
    - {fileID: 21300000, guid: 528956d354465e243863f17cbd36c794, type: 3}
    - {fileID: 21300000, guid: a5da2097ef34fcf418b8685b231837a3, type: 3}
    - {fileID: 21300000, guid: 349a21b69bdf0904e8a4addd4000c87e, type: 3}
    - {fileID: 21300000, guid: 51874cd9d44e33f4ea51a580e6d596f9, type: 3}
    - {fileID: 21300000, guid: 5da89e48e98d0314f9435fb70d722e08, type: 3}
    - {fileID: 21300000, guid: 85afccf6f34bcab4a86c7a84877fdf18, type: 3}
    - {fileID: 21300000, guid: e542e32d8422acd418d05abf390f8b76, type: 3}
    - {fileID: 21300000, guid: 48a9978e093ac6848b741b7be921429b, type: 3}
    - {fileID: 21300000, guid: b5029334abafd8543ad5a02b235813ff, type: 3}
    - {fileID: 21300000, guid: 4a7c1e3ad7e093046b7500962de7b134, type: 3}
    - {fileID: 21300000, guid: d9b40d34400ecf34bb8f03cde829a6e2, type: 3}
    - {fileID: 21300000, guid: 52a783189d5fc8741b936852f26e9836, type: 3}
    - {fileID: 21300000, guid: 2fd58240c3ad5284594b6d6ed4823008, type: 3}
    - {fileID: 21300000, guid: 9514d9e46640ff740be5f4c31cffe77b, type: 3}
    - {fileID: 21300000, guid: 4e05981da1075914d84c0255dd26c8d9, type: 3}
    - {fileID: 21300000, guid: d97864045c4a44c469800219b7256f6f, type: 3}
    - {fileID: 21300000, guid: 7fb58c8d07defd548abe6f59411b15fb, type: 3}
    - {fileID: 21300000, guid: 403b12fe86263114db2cd42eb5e2a880, type: 3}
    - {fileID: 21300000, guid: b5b7501964755b840800b9818b66a9ff, type: 3}
    - {fileID: 21300000, guid: df64a1c5abd782c489b4fc6486e61de3, type: 3}
    - {fileID: 21300000, guid: ac9037214e9ce3341b9cdc1856539853, type: 3}
    - {fileID: 21300000, guid: ed1b54d8d4f31cb46937ec83c5b023f3, type: 3}
    - {fileID: 21300000, guid: 1f60ec423ee2ae8499529a8de4243544, type: 3}
    - {fileID: 21300000, guid: db8d52298761c5146b942b96369c8249, type: 3}
    - {fileID: 21300000, guid: bb09493f3c4c13c47b7f9830e03caf4e, type: 3}
    - {fileID: 21300000, guid: c436b872edbe4094d8270768295bc7e1, type: 3}
    - {fileID: 21300000, guid: 113c964446bd8d24183c92a8ca57c2d7, type: 3}
  m_AnimationClipSettings:
    serializedVersion: 2
    m_AdditiveReferencePoseClip: {fileID: 0}
    m_AdditiveReferencePoseTime: 0
    m_StartTime: 0
    m_StopTime: 15
    m_OrientationOffsetY: 0
    m_Level: 0
    m_CycleOffset: 0
    m_HasAdditiveReferencePose: 0
    m_LoopTime: 1
    m_LoopBlend: 0
    m_LoopBlendOrientation: 0
    m_LoopBlendPositionY: 0
    m_LoopBlendPositionXZ: 0
    m_KeepOriginalOrientation: 0
    m_KeepOriginalPositionY: 1
    m_KeepOriginalPositionXZ: 0
    m_HeightFromFeet: 0
    m_Mirror: 0
  m_EditorCurves: []
  m_EulerEditorCurves: []
  m_HasGenericRootTransform: 0
  m_HasMotionFloatCurves: 0
  m_Events: []
